<?xml version="1.0" encoding="utf-8"?>
<!-- Generator: Adobe Illustrator 16.0.0, SVG Export Plug-In . SVG Version: 6.00 Build 0)  -->
<!DOCTYPE svg PUBLIC "-//W3C//DTD SVG 1.1//EN" "http://www.w3.org/Graphics/SVG/1.1/DTD/svg11.dtd">
<svg version="1.1" id="Layer_1" xmlns="http://www.w3.org/2000/svg" xmlns:xlink="http://www.w3.org/1999/xlink" x="0px" y="0px"
	 width="500.926px" height="220.248px" viewBox="0 0 500.926 220.248" enable-background="new 0 0 500.926 220.248"
	 xml:space="preserve">
<g id="XMLID_693_">
	<path id="XMLID_829_" fill="#FFA93A" d="M380.642,127.537c0,0,11.052-8.871,39.603-8.871c0-37.64,0-111.698,0-111.698
		s-39.995-5.812-53.767,34.735C353.966,78.54,380.642,127.537,380.642,127.537z"/>
	<path id="XMLID_828_" fill="#F79831" d="M460.214,127.537c0,0-11.418-8.871-39.97-8.871c0-37.64,0-111.698,0-111.698
		s40.179-5.812,53.948,34.735C486.703,78.54,460.214,127.537,460.214,127.537z"/>
	<g id="XMLID_728_">
		<g id="XMLID_783_">
			<path id="XMLID_825_" fill="#F9D19B" d="M488.457,165.447c-9.187-17.391-68.255-28.305-68.255-28.305
				s-59.07,10.914-68.254,28.305c-6.795,24.137-12.474,54.801-12.474,54.801h80.728h80.724
				C500.926,220.248,497.089,187.367,488.457,165.447z"/>
			<path id="XMLID_822_" fill="#F1C08B" d="M420.202,137.142c0,0,59.068,10.914,68.255,28.305
				c8.632,21.92,12.469,54.801,12.469,54.801h-80.724V137.142z"/>
			<rect id="XMLID_819_" x="404.119" y="101.785" fill="#F9D19B" width="32.161" height="53.822"/>
			<rect id="XMLID_816_" x="420.202" y="101.785" fill="#F1C08B" width="16.078" height="53.822"/>
			<path id="XMLID_813_" opacity="0.1" fill="#DDAC8C" d="M404.119,126.724c2.892,8.303,14.566,13.063,23.139,13.063
				c3.101,0,6.118-0.52,9.022-1.471v-36.531h-32.161V126.724z"/>
			<path id="XMLID_810_" fill="#FFE1AB" d="M461.546,67.822c0-33.619-18.51-52.735-41.344-52.735
				c-22.84,0-41.351,19.116-41.351,52.735c0,33.619,18.511,60.875,41.351,60.875C443.036,128.697,461.546,101.441,461.546,67.822z"
				/>
			<path id="XMLID_800_" fill="#F8CB96" d="M455.255,91.13c-7.494-0.834-12.558-9.418-11.287-19.164
				c1.254-9.752,8.352-16.99,15.851-16.163c7.489,0.831,12.547,9.41,11.278,19.164C469.84,84.719,462.749,91.953,455.255,91.13z"/>
			<path id="XMLID_790_" fill="#FFE1AB" d="M369.593,74.968c-1.264-9.754,3.79-18.333,11.274-19.164
				c7.505-0.827,14.601,6.411,15.859,16.163c1.266,9.745-3.796,18.329-11.288,19.164C377.943,91.953,370.851,84.719,369.593,74.968z
				"/>
			<path id="XMLID_786_" fill="#F8CB96" d="M461.546,67.822c0-33.619-18.51-52.735-41.344-52.735v113.61
				C443.036,128.697,461.546,101.441,461.546,67.822z"/>
		</g>
		<polygon id="XMLID_780_" fill="#FFFFFF" points="370.011,220.248 420.202,220.248 470.185,220.248 470.185,165.97 370.011,165.97 
					"/>
		<path id="XMLID_777_" fill="#01455C" d="M410.501,220.248l-9.342-78.771c-20.901,3.281-44.585,15.199-49.211,23.971
			c-6.795,24.137-12.474,54.801-12.474,54.801H410.501z"/>
		<path id="XMLID_729_" fill="#07253F" d="M433.884,220.248h67.042c0,0-3.837-32.881-12.469-54.801
			c-7.54-13.428-37.33-20.699-47.712-23.758L433.884,220.248z"/>
	</g>
	<path id="XMLID_725_" fill="#07253F" d="M383.578,145.953l1.975,23.52h10.993l-5.839,12.213l15.11,38.563h4.684l-9.342-78.771
		C401.159,141.476,388.55,144.21,383.578,145.953z"/>
	<path id="XMLID_722_" fill="#01455C" d="M458.271,146.054l-2.038,23.418H445.24l5.837,12.213l-15.112,38.563h-4.681l9.344-78.771
		C440.628,141.476,453.302,144.31,458.271,146.054z"/>
	<g id="XMLID_700_">
		<g id="XMLID_715_">
			<path id="XMLID_721_" fill="#0E303F" d="M380.642,69.734c0.777-1.359,2.493-3.067,4.371-3.382
				c9.096-1.451,18.27-1.502,27.357,0.058c1.8,0.33,3.465,1.965,4.28,3.324h1.683c-0.928-2.719-3.205-4.524-5.885-5.05
				c-4.549-0.821-9.186-1.151-13.756-1.182c-4.57-0.032-9.211,0.401-13.771,1.164c-2.229,0.382-7.175,3.906-7.175,3.9
				c-0.49,0.075-1.01,0.606-1.01,1.152c0,0.154,0,0.015,0,0.015H380.642z"/>
			<path id="XMLID_720_" opacity="0.1" fill="#FFFFFF" d="M415.663,82.351c-0.764,2.577-3.434,4.844-5.573,4.972
				c-7.6,0.364-15.2,0.363-22.799-0.013c-2.138-0.131-4.807-2.422-5.579-5.027c-0.861-3.116-1.363-6.198-1.51-9.306
				c-0.122-2.593,2.194-5.213,4.811-5.641c9.096-1.4,18.27-1.341,27.357,0.167c2.605,0.459,4.922,3.084,4.799,5.648
				C417.028,76.223,416.525,79.269,415.663,82.351z"/>
			<path id="XMLID_717_" fill="#0E303F" d="M412.448,65.728c-4.549-0.795-9.186-1.224-13.756-1.254s-9.211,0.335-13.771,1.073
				c-2.229,0.368-7.175,3.747-7.175,3.745c-0.49,0.069-1.01,0.557-1.01,1.083c0,2.037,0,4.074,0,6.111
				c0,0.526,0.559,0.713,1.013,0.877c0.585,0.206,1.419,1.367,1.565,2.107c0.224,1.135,0.522,2.271,0.843,3.412
				c0.938,3.152,4.169,6.049,7.04,6.243c3.805,0.207,7.676,0.322,11.484,0.319c3.809,0.003,7.674-0.112,11.492-0.318
				c2.859-0.195,6.076-3.061,7.021-6.202c0.892-3.173,1.422-6.344,1.568-9.503C418.927,70.02,416.052,66.406,412.448,65.728z
				 M415.663,82.351c-0.764,2.577-3.434,4.844-5.573,4.972c-7.6,0.364-15.2,0.363-22.799-0.013
				c-2.138-0.131-4.807-2.422-5.579-5.027c-0.861-3.116-1.363-6.198-1.51-9.306c-0.122-2.593,2.194-5.213,4.811-5.641
				c9.096-1.4,18.27-1.341,27.357,0.167c2.605,0.459,4.922,3.084,4.799,5.648C417.028,76.223,416.525,79.269,415.663,82.351z"/>
			<path id="XMLID_716_" fill="#2C5871" d="M383.127,84.829c-0.636-0.756-1.145-1.627-1.415-2.547
				c-0.861-3.116-1.363-6.198-1.51-9.306c-0.122-2.593,2.194-5.213,4.811-5.641c9.096-1.4,18.27-1.341,27.357,0.167
				c1.224,0.211,2.386,0.915,3.257,1.858c-0.899-1.27-2.297-2.257-3.795-2.512c-9.084-1.5-18.263-1.521-27.354-0.062
				c-2.615,0.447-4.93,3.077-4.808,5.661c0.145,3.096,0.644,6.163,1.508,9.268C381.522,82.876,382.244,83.961,383.127,84.829z"/>
		</g>
		<g id="XMLID_704_">
			<path id="XMLID_711_" fill="#0E303F" d="M461.518,69.734c-0.776-1.359-2.491-3.067-4.369-3.382
				c-9.095-1.451-18.27-1.502-27.354,0.058c-1.804,0.33-3.467,1.965-4.283,3.324h-1.682c0.923-2.719,3.203-4.524,5.883-5.05
				c4.549-0.821,9.185-1.151,13.753-1.182c4.573-0.032,9.213,0.401,13.774,1.164c2.23,0.382,7.019,3.906,7.018,3.9
				c0.49,0.075,0.854,0.606,0.854,1.152c0,0.154,0,0.015,0,0.015H461.518z"/>
			<path id="XMLID_710_" opacity="0.1" fill="#FFFFFF" d="M426.497,82.351c0.766,2.577,3.438,4.844,5.573,4.972
				c7.599,0.364,15.202,0.363,22.798-0.013c2.141-0.131,4.809-2.422,5.577-5.027c0.861-3.116,1.364-6.198,1.511-9.306
				c0.122-2.593-2.195-5.213-4.808-5.641c-9.095-1.4-18.27-1.341-27.354,0.167c-2.612,0.459-4.926,3.084-4.805,5.648
				C425.134,76.223,425.635,79.269,426.497,82.351z"/>
			<path id="XMLID_706_" fill="#0E303F" d="M429.712,65.728c4.549-0.795,9.185-1.224,13.753-1.254
				c4.573-0.03,9.213,0.335,13.774,1.073c2.23,0.368,7.019,3.747,7.018,3.745c0.49,0.069,0.854,0.557,0.854,1.083
				c0,2.037,0,4.074,0,6.111c0,0.526-0.403,0.713-0.855,0.877c-0.586,0.206-1.34,1.367-1.485,2.107
				c-0.226,1.135-0.489,2.271-0.806,3.412c-0.941,3.152-4.149,6.049-7.023,6.243c-3.805,0.207-7.663,0.322-11.473,0.319
				c-3.808,0.003-7.669-0.112-11.487-0.318c-2.858-0.195-6.072-3.061-7.019-6.202c-0.893-3.173-1.421-6.344-1.566-9.503
				C423.23,70.02,426.11,66.406,429.712,65.728z M426.497,82.351c0.766,2.577,3.438,4.844,5.573,4.972
				c7.599,0.364,15.202,0.363,22.798-0.013c2.141-0.131,4.809-2.422,5.577-5.027c0.861-3.116,1.364-6.198,1.511-9.306
				c0.122-2.593-2.195-5.213-4.808-5.641c-9.095-1.4-18.27-1.341-27.354,0.167c-2.612,0.459-4.926,3.084-4.805,5.648
				C425.134,76.223,425.635,79.269,426.497,82.351z"/>
			<path id="XMLID_705_" fill="#2C5871" d="M459.034,84.829c0.635-0.756,1.14-1.627,1.411-2.547
				c0.861-3.116,1.364-6.198,1.511-9.306c0.122-2.593-2.195-5.213-4.808-5.641c-9.095-1.4-18.27-1.341-27.354,0.167
				c-1.231,0.211-2.391,0.915-3.263,1.858c0.899-1.27,2.3-2.257,3.794-2.512c9.09-1.5,18.266-1.521,27.358-0.062
				c2.611,0.447,4.927,3.077,4.806,5.661c-0.146,3.096-0.646,6.163-1.508,9.268C460.639,82.876,459.917,83.961,459.034,84.829z"/>
		</g>
		<g id="XMLID_701_">
			<path id="XMLID_703_" fill="#0E303F" d="M421.604,68.8c-1.359,0.083-3.209-0.179-4.839-0.813c1.51,2.184,2.094,6.03,1.621,8.214
				c0.416-2.054,1.858-2.569,3.218-2.273V68.8z"/>
			<path id="XMLID_702_" fill="#0E303F" d="M420.244,68.8c1.359,0.083,3.342-0.179,4.973-0.813c-1.509,2.184-2.158,6.03-1.69,8.214
				c-0.418-2.054-1.923-2.569-3.282-2.273V68.8z"/>
		</g>
	</g>
	<g id="XMLID_697_">
		<path id="XMLID_699_" fill="#FFA93A" d="M393.38,38.244c0,0,19.787,41.793,68.603,29.672c7.013-3.508,14.358-43.391-25.208-51.049
			C397.209,9.21,387.957,24.521,393.38,38.244z"/>
		<path id="XMLID_698_" fill="#FFA93A" d="M377.108,76.53c0,0,6.699-29.673,24.252-41.159c-1.593-9.571,0-20.553,0-20.553
			S367.218,24.842,377.108,76.53z"/>
	</g>
	<path id="XMLID_694_" fill="#F79831" d="M436.591,16.867c-6.088-1.178-10.908-1.812-16.347-1.991v49.868
		c10.877,4.987,24.161,7.468,41.464,3.172C468.721,64.408,476.157,24.525,436.591,16.867z"/>
</g>
<path id="XMLID_690_" fill="#F1C9A5" d="M166.671,160.88c-9.954-18.842-73.944-30.664-73.944-30.664s-63.993,11.822-73.945,30.664
	c-7.356,26.146-13.508,59.367-13.508,59.367h87.453h87.453C180.181,220.248,176.025,184.626,166.671,160.88z"/>
<path id="XMLID_687_" fill="#E4B692" d="M92.728,130.216c0,0,63.99,11.822,73.944,30.664c9.354,23.746,13.509,59.367,13.509,59.367
	H92.728V130.216z"/>
<rect id="XMLID_684_" x="75.306" y="95.595" fill="#FFDCB7" width="34.841" height="54.623"/>
<rect id="XMLID_681_" x="92.728" y="95.595" fill="#F6B978" width="17.42" height="54.623"/>
<path id="XMLID_678_" opacity="0.1" fill="#DDAC8C" d="M75.306,119.867c3.132,8.994,17.428,13.213,25.066,13.213
	c3.359,0,6.627-0.563,9.775-1.594V95.595H75.306V119.867z"/>
<path fill="#F8E4CC" d="M92.728,1.674c-22.334,0-40.845,16.882-44.234,46.961c-6.04,2.244-9.852,10.117-8.744,18.948
	c0.929,7.453,5.09,13.462,10.229,15.649c5.701,30.355,22.683,41.517,42.749,41.517c24.736,0,44.792-19,44.792-65.947
	C137.52,22.383,117.464,1.674,92.728,1.674z"/>
<path fill="#F6D1A4" d="M136.929,48.396c-3.461-29.928-21.93-46.723-44.202-46.723V124.75c19.813,0,36.612-12.208,42.519-41.186
	c5.558-1.829,10.171-8.087,11.156-15.981C147.554,58.403,143.388,50.257,136.929,48.396z"/>
<path id="XMLID_628_" fill="#07253F" d="M119.55,137.72c0,0,41.051,6.035,47.109,12.385c5.278,5.535,16.253,58.518,18.794,70.143
	c-72.069,0-92.726,0-92.726,0v-75.232L119.55,137.72z"/>
<path id="XMLID_525_" fill="#01455C" d="M65.904,137.72c0,0-41.05,6.035-47.111,12.385C13.515,155.64,2.539,208.623,0,220.248
	c72.065,0,92.728,0,92.728,0v-75.232L65.904,137.72z"/>
<polygon id="XMLID_521_" fill="#F1F2F2" points="67.187,136.017 92.728,220.248 117.565,136.017 92.734,142.33 "/>
<path id="XMLID_505_" fill="#A96A23" d="M116.502,5.224c-33.257-15.05-58.854,6.235-64.657,15.448
	c-6.175,9.805-9.689,33.992,3.027,51.064c0,0,38.721-15.72,44.947-32.16c-0.364,10.534-6.142,20.259-6.142,20.259
	s17.82-5.832,27.102-21.894c5.532,6.488,10.962,16.999,12.394,33.779C144.249,55.496,151.014,11.777,116.502,5.224z"/>
<polygon id="XMLID_500_" fill="#C02F2E" points="100.465,150.167 92.732,142.324 85.003,150.167 90.065,155.304 84.996,211.041 
	92.732,220.248 100.465,211.041 95.397,155.306 "/>
<polygon id="XMLID_478_" fill="#AD2E2A" points="92.732,142.324 92.728,142.332 92.728,220.242 92.732,220.248 100.465,211.041 
	95.397,155.306 100.465,150.167 "/>
<polygon id="XMLID_461_" fill="#01455C" points="92.728,220.248 130.542,178.132 117.565,173.216 140.141,142.554 117.472,136.017 
	"/>
<polygon id="XMLID_447_" fill="#07253F" points="92.728,220.248 54.911,178.132 67.887,173.216 45.315,142.554 67.25,136.017 "/>
<polygon id="XMLID_429_" fill="#FFFFFF" points="92.734,142.33 75.306,130.216 62.088,137.554 82.55,158.007 "/>
<polygon id="XMLID_428_" fill="#F1F2F2" points="92.734,142.33 110.147,130.216 122.411,137.269 103.141,158.007 "/>
<path id="XMLID_389_" fill="#965801" d="M116.502,5.224C108.016,1.382,100.023-0.089,92.734,0v49.253
	c3.284-3.116,5.84-6.383,7.085-9.677c-0.364,10.534-6.142,20.259-6.142,20.259s17.82-5.832,27.102-21.894
	c5.532,6.488,10.962,16.999,12.394,33.779C144.249,55.496,151.68,13.303,116.502,5.224z"/>
<g id="XMLID_4_">
	<path id="XMLID_9_" d="M275.815,57.852h44.276v4.404c-5.444,0.374-10.688,2.481-15.732,6.325
		c-5.044,3.843-11.063,9.928-18.055,18.255l-17.374,20.896l28.583,37.311c4.804,6.352,8.126,10.607,9.968,12.771
		c1.842,2.16,4.244,4.121,7.206,5.883s6.418,2.67,10.368,2.723v4.404h-57.727v-4.404h1.922c3.896,0,6.791-0.641,8.687-1.922
		c1.895-1.281,2.843-2.775,2.843-4.482c0-2.029-0.814-4.336-2.442-6.928c-1.628-2.586-3.883-5.75-6.765-9.486l-15.453-20.336
		l-15.373,18.174c-2.936,3.471-5.057,6.406-6.364,8.807c-1.309,2.402-1.962,4.725-1.962,6.967c0,2.99,1.094,5.203,3.283,6.645
		c2.188,1.441,5.337,2.297,9.447,2.563v4.404h-44.756v-4.404h0.96c2.455,0,5.417-0.867,8.887-2.602
		c3.469-1.734,7.418-4.523,11.85-8.367c4.43-3.844,8.887-8.514,13.371-14.012l18.094-21.777L224.175,81.15
		c-4.218-5.604-7.42-9.634-9.608-12.09c-2.188-2.454-4.377-4.189-6.565-5.203s-4.991-1.548-8.406-1.602v-4.404h54.924v4.404h-5.764
		c-2.189,0-4.044,0.468-5.565,1.401c-1.521,0.935-2.281,2.229-2.281,3.883c0,1.335,0.347,2.63,1.04,3.883
		c0.693,1.255,1.922,3.057,3.684,5.404l20.496,27.221l14.813-17.853c5.124-6.138,7.686-11.156,7.686-15.053
		c0-2.348-1.094-4.376-3.282-6.085c-2.188-1.707-5.364-2.642-9.528-2.802V57.852z M278.618,139.998l-51.321-67.574
		c-2.456-3.148-4.311-5.324-5.564-6.525c-1.255-1.201-2.802-2.121-4.644-2.762s-4.283-0.987-7.326-1.041
		c1.975,0.748,4.043,2.202,6.205,4.363c2.162,2.162,4.844,5.352,8.047,9.567l53.803,71.659c3.684,5.018,5.525,9.074,5.525,12.17
		c0,2.188-1.416,4.377-4.244,6.564c3.203,0.055,5.645-0.561,7.326-1.842s2.521-3.016,2.521-5.203c0-2.295-0.814-4.924-2.441-7.887
		C284.876,148.525,282.247,144.695,278.618,139.998z M211.204,166.419h19.535c-3.042-1.762-4.563-4.217-4.563-7.365
		c0-1.654,0.427-3.469,1.281-5.445c-2.081,2.189-3.603,3.764-4.563,4.725s-2.47,2.176-4.523,3.643
		C216.314,163.445,213.926,164.925,211.204,166.419z M303.519,62.256h-17.214c3.309,1.975,4.964,4.777,4.964,8.406
		c0,0.961-0.054,1.762-0.16,2.402C294.204,68.421,298.341,64.817,303.519,62.256z"/>
</g>
</svg>
