<?xml version="1.0" encoding="utf-8"?>
<!-- Generator: Adobe Illustrator 16.0.0, SVG Export Plug-In . SVG Version: 6.00 Build 0)  -->
<!DOCTYPE svg PUBLIC "-//W3C//DTD SVG 1.1//EN" "http://www.w3.org/Graphics/SVG/1.1/DTD/svg11.dtd">
<svg version="1.1" id="Layer_1" xmlns="http://www.w3.org/2000/svg" xmlns:xlink="http://www.w3.org/1999/xlink" x="0px" y="0px"
	 width="400.354px" height="239.147px" viewBox="0 0 400.354 239.147" enable-background="new 0 0 400.354 239.147"
	 xml:space="preserve">
<g id="XMLID_915_">
	<g id="XMLID_931_">
		<polyline id="XMLID_972_" fill="#00BFF4" points="307.385,186.567 352.861,234.886 346.229,174.251 		"/>
		<g id="XMLID_937_">
			<path id="XMLID_950_" fill="#008FB7" d="M46.777,82.175c-3.017,7.73-4.613,15.784-4.613,24.059
				c0,58.671,80.184,106.232,179.095,106.232c19.625,0,38.509-1.878,56.18-5.338C168.226,205.841,75.8,153.32,46.777,82.175z"/>
			<path id="XMLID_939_" fill="#00BFF4" d="M400.354,106.233C400.354,47.563,320.171,0,221.259,0
				C136.297,0,65.154,35.093,46.777,82.175C75.8,153.32,168.226,205.841,277.438,207.128
				C348.828,193.149,400.354,153.263,400.354,106.233z"/>
		</g>
		<g id="XMLID_932_">
			<path id="XMLID_933_" fill="#FFFFFF" d="M225.486,135.123h-3.842l-8.897-81.897c-0.404-3.504-0.606-6.167-0.606-7.987
				c0-2.089,0.304-4.01,0.909-5.763c0.607-1.752,1.432-3.235,2.478-4.449c1.044-1.213,2.258-2.156,3.64-2.83
				c1.381-0.674,2.882-1.012,4.5-1.012c3.235,0,5.931,1.281,8.088,3.842c2.156,2.563,3.235,6.37,3.235,11.426
				c0,0.809-0.034,1.77-0.101,2.881c-0.068,1.112-0.169,2.411-0.304,3.893L225.486,135.123z M223.464,151.906
				c1.482,0,2.916,0.304,4.298,0.91c1.381,0.606,2.578,1.415,3.589,2.427c1.012,1.011,1.82,2.19,2.427,3.539s0.91,2.764,0.91,4.246
				c0,1.551-0.304,3-0.91,4.348c-0.606,1.349-1.415,2.527-2.427,3.539c-1.011,1.011-2.191,1.819-3.539,2.426
				c-1.349,0.607-2.797,0.91-4.348,0.91s-3-0.303-4.348-0.91c-1.348-0.606-2.527-1.415-3.538-2.426
				c-1.011-1.012-1.819-2.19-2.427-3.539c-0.606-1.348-0.91-2.797-0.91-4.348c0-1.55,0.304-2.999,0.91-4.348
				c0.607-1.348,1.416-2.527,2.427-3.539c1.011-1.011,2.19-1.803,3.538-2.376C220.464,152.193,221.913,151.906,223.464,151.906z"/>
		</g>
	</g>
	<g id="XMLID_916_">
		<polyline id="XMLID_928_" fill="#409FB9" points="47.157,214.639 24.09,239.147 27.454,208.392 		"/>
		<g id="XMLID_921_">
			<path id="XMLID_925_" fill="#409FB9" d="M179.345,161.688c1.531,3.921,2.34,8.006,2.34,12.203
				c0,29.76-40.672,53.885-90.843,53.885c-9.955,0-19.533-0.953-28.496-2.708C117.743,224.415,164.624,197.774,179.345,161.688z"/>
			<path id="XMLID_922_" fill="#70B7CA" d="M0,173.891c0-29.76,40.672-53.885,90.843-53.885c43.095,0,79.181,17.801,88.502,41.682
				c-14.721,36.087-61.603,62.728-116.999,63.38C26.136,217.978,0,197.745,0,173.891z"/>
		</g>
		<g id="XMLID_917_">
			<path id="XMLID_918_" fill="#FFFFFF" d="M89.4,189.907h-2.028c0.264-4.222,0.775-7.652,1.534-10.291
				c0.396-1.385,1.021-3.018,1.88-4.897c0.857-1.88,1.912-4.04,3.166-6.481c0.956-1.88,1.764-3.528,2.424-4.947
				c0.66-1.418,1.138-2.622,1.435-3.611c0.594-2.012,0.891-4.04,0.891-6.086c0-2.077-0.305-3.965-0.915-5.664
				c-0.611-1.698-1.435-3.142-2.474-4.329c-1.039-1.188-2.259-2.103-3.661-2.746c-1.402-0.643-2.895-0.965-4.478-0.965
				c-1.452,0-2.746,0.19-3.884,0.569c-1.138,0.38-2.103,0.874-2.894,1.484s-1.402,1.295-1.831,2.053
				c-0.429,0.76-0.643,1.534-0.643,2.325c0,0.562,0.156,1.245,0.47,2.054s0.651,1.625,1.015,2.449c0.362,0.824,0.7,1.607,1.014,2.35
				s0.47,1.311,0.47,1.707c0,1.188-0.379,2.186-1.138,2.993c-0.759,0.808-1.682,1.212-2.771,1.212c-0.693,0-1.369-0.174-2.029-0.52
				c-0.66-0.347-1.245-0.857-1.756-1.533c-0.512-0.676-0.924-1.492-1.237-2.449c-0.314-0.957-0.47-2.045-0.47-3.266
				c0-1.813,0.412-3.578,1.237-5.294c0.824-1.714,2.004-3.231,3.538-4.551c1.533-1.319,3.405-2.375,5.615-3.167
				c2.209-0.791,4.683-1.188,7.421-1.188c2.902,0,5.5,0.413,7.792,1.237c2.292,0.825,4.238,1.938,5.838,3.339
				c1.6,1.402,2.82,3.052,3.661,4.948s1.262,3.917,1.262,6.06c0,2.441-0.544,4.916-1.633,7.422
				c-0.561,1.254-1.336,2.631-2.325,4.131c-0.989,1.501-2.243,3.109-3.76,4.823c-4.75,5.344-7.686,9.187-8.807,11.528
				C90.308,182.815,89.665,185.917,89.4,189.907z M88.708,196.042c1.583,0,2.902,0.527,3.958,1.583
				c1.055,1.056,1.583,2.374,1.583,3.958c0,0.759-0.148,1.468-0.445,2.127c-0.297,0.66-0.692,1.236-1.188,1.731
				c-0.494,0.495-1.08,0.891-1.756,1.188c-0.677,0.297-1.394,0.445-2.152,0.445c-0.759,0-1.468-0.148-2.127-0.445
				s-1.237-0.692-1.731-1.188s-0.891-1.071-1.188-1.731c-0.297-0.659-0.445-1.368-0.445-2.127c0-0.792,0.148-1.525,0.445-2.202
				c0.297-0.676,0.693-1.262,1.188-1.756c0.495-0.495,1.072-0.882,1.731-1.163C87.24,196.183,87.949,196.042,88.708,196.042z"/>
		</g>
	</g>
</g>
</svg>
